RNASeq & Clinical Data, ML, and Quarto
…
unique(df_clinic$`IHC-HER2`)

[1] "Negative"      "Positive"      "Indeterminate" "Equivocal"    
[5] NA             

Code

# So, we got pos, neg, indet and NA. Cool.
df_ihc <- df_clinic %>%
    select("Patient ID", "ER Status By IHC", "PR status by ihc", "IHC-HER2")

# note x by ihc != ihc-her2
print(df_ihc)

# A tibble: 1,108 × 4
   `Patient ID` `ER Status By IHC` `PR status by ihc` `IHC-HER2`   
   <chr>        <chr>              <chr>              <chr>        
 1 TCGA-3C-AAAU Positive           Positive           Negative     
 2 TCGA-3C-AALI Positive           Positive           Positive     
 3 TCGA-3C-AALJ Positive           Positive           Indeterminate
 4 TCGA-3C-AALK Positive           Positive           Positive     
 5 TCGA-4H-AAAK Positive           Positive           Equivocal    
 6 TCGA-5L-AAT0 Positive           Positive           Negative     
 7 TCGA-5L-AAT1 Positive           Positive           Equivocal    
 8 TCGA-5T-A9QA Positive           Negative           Equivocal    
 9 TCGA-A1-A0SB Positive           Negative           Negative     
10 TCGA-A1-A0SD Positive           Positive           Negative     
# ℹ 1,098 more rows
…
